Vehicle,Radius,Road Class,Cluster,len,MAPE,MAE,RMSE,SMAPE
cars,500,A,A,[39],0.619736957704301,5880.46359157506,51886344.7650434,0.462326109024082
cars,1600,A,A,[39],0.598375523451605,7052.59214419305,136243280.945046,0.630141443415132
cars,3200,A,A,[39],0.67197545401101,7154.96526208274,90554095.6138078,0.723092028612798
cars,500,B,A,[0],,,,
cars,1600,B,A,[0],,,,
cars,3200,B,A,[0],,,,
cars,500,C,A,[0],,,,
cars,1600,C,A,[0],,,,
cars,3200,C,A,[0],,,,
cars,500,U,A,[2],,,,
cars,1600,U,A,[2],,,,
cars,3200,U,A,[2],,,,
cars,500,A,B,[328],0.664600945376888,2760.03204201514,13268264.543091,0.373315174878397
cars,1600,A,B,[328],0.990824662008177,2928.91758100363,13207931.2501284,0.450942271280147
cars,3200,A,B,[328],0.602034021698329,2400.95803846015,9476252.6651995,0.322849105050895
cars,500,B,B,[32],1.01677092963279,409.780542851356,215411.618311282,0.438820952337445
cars,1600,B,B,[32],0.515372046326943,2666.86021811202,12649452.7377834,0.544867403417021
cars,3200,B,B,[32],0.465368609985793,2098.39196639293,8444848.64546533,0.473029059551771
cars,500,C,B,[31],0.455832136484717,935.584466094175,1506520.64442674,0.563737571362722
cars,1600,C,B,[31],0.777150484630432,539.573979250347,610297.276057923,0.627130455954482
cars,3200,C,B,[31],0.756135020427728,1094.24096904414,2233339.87429992,0.722153229792464
cars,500,U,B,[62],2.53847615619947,1236.32024848637,3319321.67052989,0.714902748231032
cars,1600,U,B,[62],3.57311294356115,1368.11407973457,2561348.96699406,0.950447096472244
cars,3200,U,B,[62],2.73700618086681,1080.91394286768,1867020.44426067,0.82233077740435
cars,500,A,C,[37],0.197168475786049,11356.7721192825,167098046.376957,0.203705452706454
cars,1600,A,C,[37],0.202145704278973,10497.794740759,129083138.884458,0.198551747101987
cars,3200,A,C,[37],0.337648211166613,14418.9552991542,234335134.108782,0.282737205959997
cars,500,B,C,[0],,,,
cars,1600,B,C,[0],,,,
cars,3200,B,C,[0],,,,
cars,500,C,C,[0],,,,
cars,1600,C,C,[0],,,,
cars,3200,C,C,[0],,,,
cars,500,U,C,[0],,,,
cars,1600,U,C,[0],,,,
cars,3200,U,C,[0],,,,
cars,500,A,D,[127],0.242719096837827,5639.30408937141,51703761.0629503,0.212583636688994
cars,1600,A,D,[127],0.181074400709679,5035.18346715896,40498259.317644,0.183028133176578
cars,3200,A,D,[127],0.231058377379491,5305.53061387489,39805921.4658362,0.206773896381641
cars,500,B,D,[0],,,,
cars,1600,B,D,[0],,,,
cars,3200,B,D,[0],,,,
cars,500,C,D,[0],,,,
cars,1600,C,D,[0],,,,
cars,3200,C,D,[0],,,,
cars,500,U,D,[0],,,,
cars,1600,U,D,[0],,,,
cars,3200,U,D,[0],,,,
cars,500,A,E,[190],0.388635320859977,2780.94651442155,12625084.110964,0.301198404132566
cars,1600,A,E,[190],0.916264213502171,2967.65496328347,15185104.5862452,0.339739116961657
cars,3200,A,E,[190],0.425150606580687,3628.40274829815,19894451.5226065,0.373597248088881
cars,500,B,E,[11],0.682612615501922,6959.0920819628,48435772.3065307,0.631173012343205
cars,1600,B,E,[11],5.13995550559405,5192.22222222222,35468060.6049383,0.978544154347636
cars,3200,B,E,[11],0.295186566780245,3710.44606043917,21808528.2093563,0.359428143477394
cars,500,C,E,[10],0.301012598648831,2685.125,9240521.265625,0.365990267537023
cars,1600,C,E,[10],0.0812458145160576,756.493486504663,1009334.33579573,0.0868311105769412
cars,3200,C,E,[10],0.506873815556865,2726.87341472795,7667469.06065861,0.499516262092877
cars,500,U,E,[49],6.61542785590736,2005.18555605846,5122846.26927088,0.945949413338908
cars,1600,U,E,[49],8.97458884837676,1852.17051847766,5021334.63351321,0.902074216044594
cars,3200,U,E,[49],2.46432115789028,3015.54493085623,18353855.2989017,0.971075639334979
cars,500,A,-1,[721],0.521096644970297,5481.8258739563,78329861.7922618,0.369531718002787
cars,1600,A,-1,[721],0.4644935772251,4104.50450892064,34907039.6886909,0.335664699873948
cars,3200,A,-1,[721],0.638115698984651,4764.36794328431,49513345.611138,0.369303772309581
cars,500,B,-1,[43],2.45749788161154,3675.3335416653,19779294.2218927,0.853963933081068
cars,1600,B,-1,[43],0.884689974524465,3571.3065382061,28618574.0759441,0.758782912725586
cars,3200,B,-1,[43],1.51363752126011,2217.77756289921,12529686.2238314,0.816676953852405
cars,500,C,-1,[41],0.592838470593528,1296.56877764102,2416424.73539901,0.435321922946088
cars,1600,C,-1,[41],0.399154342331565,1373.65122786336,3025771.33469439,0.417784244369852
cars,3200,C,-1,[41],0.455552389765398,841.861245397206,968978.446872144,0.525252425272613
cars,500,U,-1,[113],2.17774429246362,1375.17549634942,5380770.64397281,0.907916468007527
cars,1600,U,-1,[113],8.73387404700562,2138.01117081565,9115996.09252745,1.05316286711012
cars,3200,U,-1,[113],3.90220380591125,1436.76440222475,4086144.62865124,0.934229086936898
bus,500,A,A,[28],0.429777850912858,115.769930582709,21843.1443187817,0.554675395211029
bus,1600,A,A,[28],0.911889553934469,59.5766106828463,6137.65287048493,0.526696334951603
bus,3200,A,A,[28],0.803478816508143,291.282247643101,148345.380118217,0.87004722790013
bus,500,B,A,[0],,,,
bus,1600,B,A,[0],,,,
bus,3200,B,A,[0],,,,
bus,500,C,A,[0],,,,
bus,1600,C,A,[0],,,,
bus,3200,C,A,[0],,,,
bus,500,U,A,[1],,,,
bus,1600,U,A,[1],,,,
bus,3200,U,A,[1],,,,
bus,500,A,B,[235],5418633484419798,38.6412027945106,2293.09644047799,0.637927090172292
bus,1600,A,B,[235],1.34306020681442,35.4418306704905,2307.81590138069,0.621246190847643
bus,3200,A,B,[235],1.43261201572628,38.5861998525153,2406.69660796969,0.615705777835542
bus,500,B,B,[24],13.368992684135,38.7125524199745,3201.07669136987,1.07803536244935
bus,1600,B,B,[24],1.46606915828926,30.1785899009431,1379.27887232926,1.12854613288783
bus,3200,B,B,[24],1.28652083939958,30.3698766161209,1795.87872202342,0.883580660568432
bus,500,C,B,[23],6.80722842169102E+016,15.1150834552883,421.638638157456,2
bus,1600,C,B,[23],5.31221639276069E+016,26.8164995763665,1232.64163519099,1.61954984959108
bus,3200,C,B,[23],3.0860669518759E+016,15.4975964351265,448.455907239499,1.74806256809546
bus,500,U,B,[38],1.88788534159269E+016,15.3855803093278,421.584484140466,1.84642435253736
bus,1600,U,B,[38],1.29998887361306E+016,41.7133307541085,4566.67981884986,1.51627200110687
bus,3200,U,B,[38],2.26998383399991E+016,30.610978595692,3777.60704372217,1.7768702384744
bus,500,A,C,[11],0.394726240162577,572.32252864848,432644.696103865,0.519279885346227
bus,1600,A,C,[11],0.236634173173986,326,162814.271604938,0.276512774365946
bus,3200,A,C,[11],1.30870346188513,887.029178119522,787092.669792789,0.790719242825549
bus,500,B,C,[0],,,,
bus,1600,B,C,[0],,,,
bus,3200,B,C,[0],,,,
bus,500,C,C,[0],,,,
bus,1600,C,C,[0],,,,
bus,3200,C,C,[0],,,,
bus,500,U,C,[1],,,,
bus,1600,U,C,[1],,,,
bus,3200,U,C,[1],,,,
bus,500,A,D,[282],1.08674998372536,62.9170272005659,6078.14633905073,0.634470914969066
bus,1600,A,D,[282],1.79953336333121,74.1970208994414,8303.2997149305,0.770361744018104
bus,3200,A,D,[282],2.20445765630934,68.7948246230439,7610.43616840977,0.740268008819563
bus,500,B,D,[11],1.3632775930686,67.3960033123804,7607.69427105726,0.919873447341167
bus,1600,B,D,[11],0.491721105853518,88.9286961954167,8524.50482234141,0.666247267533238
bus,3200,B,D,[11],0.480134959553858,81.3010432319534,8570.18676294963,0.6929444455135
bus,500,C,D,[11],0.797591896174526,143.39997994737,29169.555720542,0.869077197167964
bus,1600,C,D,[11],30.1098253006483,65.8109391393575,7287.94525603542,1.03482559767599
bus,3200,C,D,[11],0.54409026668339,145.816906999805,33373.0568761599,0.823099590103681
bus,500,U,D,[49],9.02328674166273E+016,33.159427694328,2042.13043636349,1.25798076991443
bus,1600,U,D,[49],7.81599683609327E+016,55.976999079008,6326.71660215524,1.99270299444729
bus,3200,U,D,[49],4.80349971164023E+016,55.0391591767433,4659.49467385459,0.990564390071269
bus,500,A,E,[165],1.73082933624605,122.90957928355,28552.9021486086,0.698457598503573
bus,1600,A,E,[165],3.64447430998268,132.063139235546,31807.2490006169,0.764294946155008
bus,3200,A,E,[165],1.93908443451441,96.2557048701362,16104.365703879,0.684699900870976
bus,500,B,E,[8],,,,
bus,1600,B,E,[8],,,,
bus,3200,B,E,[8],,,,
bus,500,C,E,[7],,,,
bus,1600,C,E,[7],,,,
bus,3200,C,E,[7],,,,
bus,500,U,E,[24],1.45487503506548E+017,33.0527964769922,3342.79340216394,1.70888779103605
bus,1600,U,E,[24],7.49561549218565E+016,35.3100102251928,1655.76478601169,1.40948351307973
bus,3200,U,E,[24],4.13204114535565E+016,95.3041636002556,29696.0297898628,1.25230937407194
bus,500,A,-1,[721],1.80490221719311,85.1871890487468,19490.9026817601,0.760440202632098
bus,1600,A,-1,[721],3.26162999788961,87.1160228280317,16240.8242155354,0.825398504473442
bus,3200,A,-1,[721],1.8769253160872,93.2955847512716,34666.6707768501,0.681243214616221
bus,500,B,-1,[43],8.14134837438983,64.9139120285703,7264.17243132759,1.17304230824889
bus,1600,B,-1,[43],2.45240170814622,37.4533206734793,2307.9782733623,1.23723520793397
bus,3200,B,-1,[43],1.5250441511693,33.5227714348821,6427.25242777334,0.494345005659302
bus,500,C,-1,[41],2.88323733180023E+016,52.3294024776022,8513.1404388467,0.950953469076699
bus,1600,C,-1,[41],9.41184606938531E+016,35.9442861627887,3289.2729331795,1.21150217971543
bus,3200,C,-1,[41],5016709461592857,57.4470926332411,9827.39670424258,1.58896223501059
bus,500,U,-1,[113],7.80497721222252E+016,45.1643127262514,6150.74616220668,1.46388637808073
bus,1600,U,-1,[113],3.93853060744338E+016,64.4055809320126,30045.0060355321,1.33605709622353
bus,3200,U,-1,[113],3.82385438923482E+016,52.9348536757749,9976.10298986132,1.71565384716963
hgv,500,A,A,[34],0.602770855491817,287.55130887506,131975.920166561,0.793603165683427
hgv,1600,A,A,[34],0.395669398387059,214.829263697633,80372.0768801764,0.547925682039019
hgv,3200,A,A,[34],1.13904747164803,167.033146362043,68861.4152882709,0.5970292271425
hgv,500,B,A,[0],,,,
hgv,1600,B,A,[0],,,,
hgv,3200,B,A,[0],,,,
hgv,500,C,A,[0],,,,
hgv,1600,C,A,[0],,,,
hgv,3200,C,A,[0],,,,
hgv,500,U,A,[2],,,,
hgv,1600,U,A,[2],,,,
hgv,3200,U,A,[2],,,,
hgv,500,A,B,[313],0.609436504710465,121.385678046196,23114.3947397174,0.478085675110395
hgv,1600,A,B,[313],0.831532937554821,107.362460607908,18017.1114477748,0.490213759043721
hgv,3200,A,B,[313],0.720766821253743,125.482526810216,29861.9719740431,0.533926179713769
hgv,500,B,B,[33],1.9230861272155,62.545777450988,5298.49525291376,0.996984312615329
hgv,1600,B,B,[33],0.542150119916409,63.5308073372909,9258.4666009387,0.794477874040079
hgv,3200,B,B,[33],2.37305994687613,65.7580742629283,6498.16607159959,0.931194706019112
hgv,500,C,B,[31],0.593349091503211,15.9829360795953,417.772403577641,0.908170834775771
hgv,1600,C,B,[31],0.886323917484463,22.263392520477,1335.16879755758,0.700042361259602
hgv,3200,C,B,[31],0.606136121292069,16.5157533821416,452.254504225627,0.730598822330612
hgv,500,U,B,[62],3.67997396909462E+016,16.6009224765049,620.233124655675,1.17580816772542
hgv,1600,U,B,[62],7595526343986991,15.7658728625634,535.092922785837,1.1395646939072
hgv,3200,U,B,[62],1.31116460783856E+016,17.7228638673357,634.455317697173,1.12565537718112
hgv,500,A,C,[51],0.202916770187916,1037.93261076421,1752999.95390295,0.224938434456589
hgv,1600,A,C,[51],0.356115582636309,1431.04203781709,2555608.11866329,0.326318973195886
hgv,3200,A,C,[51],0.224469816585138,866.33575410462,2021403.78173603,0.187261758546648
hgv,500,B,C,[0],,,,
hgv,1600,B,C,[0],,,,
hgv,3200,B,C,[0],,,,
hgv,500,C,C,[0],,,,
hgv,1600,C,C,[0],,,,
hgv,3200,C,C,[0],,,,
hgv,500,U,C,[0],,,,
hgv,1600,U,C,[0],,,,
hgv,3200,U,C,[0],,,,
hgv,500,A,D,[118],0.241503921158658,365.877519322,243339.26085847,0.221479674648057
hgv,1600,A,D,[118],0.168088412316588,274.90511549788,123492.755505655,0.17163853699021
hgv,3200,A,D,[118],0.20085603926815,296.216782131305,150837.852076743,0.1826401267658
hgv,500,B,D,[0],,,,
hgv,1600,B,D,[0],,,,
hgv,3200,B,D,[0],,,,
hgv,500,C,D,[0],,,,
hgv,1600,C,D,[0],,,,
hgv,3200,C,D,[0],,,,
hgv,500,U,D,[0],,,,
hgv,1600,U,D,[0],,,,
hgv,3200,U,D,[0],,,,
hgv,500,A,E,[205],0.887812454384579,150.424943233929,44288.9090379661,0.553330537070302
hgv,1600,A,E,[205],0.906677860868637,124.549195872088,29323.5567669417,0.512276989865528
hgv,3200,A,E,[205],0.614118560731688,126.859380584587,55621.1715268087,0.45830279133388
hgv,500,B,E,[10],3.91641716394609,87.0305385565206,7713.98262136902,1.31889688532232
hgv,1600,B,E,[10],0.622757321548398,31.2898604345392,983.673763309678,0.471670536650331
hgv,3200,B,E,[10],0.66744901552465,38.3151640965189,2733.10181577327,0.420587067183062
hgv,500,C,E,[10],0.566221922017603,33.987219164332,1929.10375457816,0.883099090811771
hgv,1600,C,E,[10],0.614918752264154,20.9768136925995,615.345104377753,0.5744499086189
hgv,3200,C,E,[10],1.64444444444444,18,388,0.757575757575758
hgv,500,U,E,[49],1.2349178042542,22.7730005686773,885.331221259296,0.849088659191407
hgv,1600,U,E,[49],1.02566050782668E+016,20.7942059374104,809.877434273973,1.20361204960594
hgv,3200,U,E,[49],5.78183964965506,29.1668350805619,2675.4700757609,1.00590150510699
hgv,500,A,-1,[721],0.963118723506252,346.194197487778,368509.532934275,0.596599650698902
hgv,1600,A,-1,[721],1.12146949707932,339.934870827319,445413.360269085,0.491189762471818
hgv,3200,A,-1,[721],0.958243269409296,324.719538204159,349865.781340359,0.485614217300753
hgv,500,B,-1,[43],1.0988757234489,40.88210528384,3615.21876860544,0.603049908501012
hgv,1600,B,-1,[43],1.15796200288159,77.6465606483268,12211.5533359184,0.865618034930378
hgv,3200,B,-1,[43],1.19262018280989,44.0807611597952,2599.85970151054,0.706492261333645
hgv,500,C,-1,[41],2.37346388024627,21.4848323940627,694.981532342374,0.971242601200714
hgv,1600,C,-1,[41],2.30563588384107,15.8050364262848,410.385323806321,0.861975131386211
hgv,3200,C,-1,[41],0.63176023213433,11.3463294210793,207.354931695753,0.614495337512111
hgv,500,U,-1,[113],2494616884422515,13.5709218111255,314.398290116304,1.08215323749121
hgv,1600,U,-1,[113],3033457425412622,23.3216259004803,1469.64375683017,1.04958917755994
hgv,3200,U,-1,[113],5.76122796394895,17.7614040081191,656.389590428785,0.984198703840056
lgvs,500,A,A,[35],0.60975679535542,1055.25543473341,2674863.67696676,0.553296943514683
lgvs,1600,A,A,[35],0.585801589403135,1548.27095318937,6652992.31055841,0.635320906102584
lgvs,3200,A,A,[35],0.516379136144714,2209.90390098659,9838718.08210279,0.823234862496332
lgvs,500,B,A,[0],,,,
lgvs,1600,B,A,[0],,,,
lgvs,3200,B,A,[0],,,,
lgvs,500,C,A,[0],,,,
lgvs,1600,C,A,[0],,,,
lgvs,3200,C,A,[0],,,,
lgvs,500,U,A,[2],,,,
lgvs,1600,U,A,[2],,,,
lgvs,3200,U,A,[2],,,,
lgvs,500,A,B,[335],0.475054550570091,505.338667139997,389137.923634872,0.37279433670101
lgvs,1600,A,B,[335],0.598865865197844,580.864483874181,564312.347676541,0.389959002745161
lgvs,3200,A,B,[335],0.617789224865702,521.156133803968,499173.410301214,0.38637489839976
lgvs,500,B,B,[33],0.302318091926905,148.601993117715,37464.7775812288,0.29594792872857
lgvs,1600,B,B,[33],0.538782737110593,328.451278562432,256090.733392064,0.552533277816345
lgvs,3200,B,B,[33],0.655588779452279,182.239640776557,72678.3506438862,0.391777164960887
lgvs,500,C,B,[31],1.34984437445423,177.122199517784,63253.0391797217,0.599876599672257
lgvs,1600,C,B,[31],4.63756970205538,161.930178134677,35471.531901602,1.01961055665626
lgvs,3200,C,B,[31],0.889493911480657,255.597838594701,166197.85474436,0.78039234639641
lgvs,500,U,B,[62],3.00799138540697,176.973589571341,71400.0164322168,0.748316371281989
lgvs,1600,U,B,[62],14.1625003338238,216.325704820425,74219.8794172767,1.33932132572272
lgvs,3200,U,B,[62],3.00893588147261,189.252804078774,60108.8814337346,1.08168574439935
lgvs,500,A,C,[45],0.156528800980877,1669.88960646709,4111346.97793815,0.142601317266172
lgvs,1600,A,C,[45],0.188117936349929,2146.64828463023,6075467.93177401,0.188119276944068
lgvs,3200,A,C,[45],0.2612179442936,2922.92980168551,13998337.2543829,0.234225174789228
lgvs,500,B,C,[0],,,,
lgvs,1600,B,C,[0],,,,
lgvs,3200,B,C,[0],,,,
lgvs,500,C,C,[0],,,,
lgvs,1600,C,C,[0],,,,
lgvs,3200,C,C,[0],,,,
lgvs,500,U,C,[0],,,,
lgvs,1600,U,C,[0],,,,
lgvs,3200,U,C,[0],,,,
lgvs,500,A,D,[119],0.191730575705113,959.902457085994,1359082.526363,0.179191384794583
lgvs,1600,A,D,[119],0.233749449833398,1257.61848069393,2465298.90602378,0.229155945217947
lgvs,3200,A,D,[119],0.229672933090358,1175.09221882082,2436978.36236128,0.212177865881404
lgvs,500,B,D,[0],,,,
lgvs,1600,B,D,[0],,,,
lgvs,3200,B,D,[0],,,,
lgvs,500,C,D,[0],,,,
lgvs,1600,C,D,[0],,,,
lgvs,3200,C,D,[0],,,,
lgvs,500,U,D,[0],,,,
lgvs,1600,U,D,[0],,,,
lgvs,3200,U,D,[0],,,,
lgvs,500,A,E,[187],0.504544285737386,502.983831950627,391402.394989374,0.353038463428324
lgvs,1600,A,E,[187],0.427277819441034,705.18078052937,854954.563914705,0.400428603260768
lgvs,3200,A,E,[187],0.867805552069966,701.548934572074,982189.471055581,0.378761141485081
lgvs,500,B,E,[10],5.38835434224297,1344.5,1888549.390625,1.2476092333527
lgvs,1600,B,E,[10],0.669676146161559,919.415547066938,1365569.46932672,0.839214645332283
lgvs,3200,B,E,[10],0.408636877343835,422.965375186234,249916.085869356,0.312065892188235
lgvs,500,C,E,[10],0.253753863182873,280.846520593987,90819.6007142087,0.299503880335962
lgvs,1600,C,E,[10],0.482368144698962,359.453271629698,212405.235614084,0.35546533562877
lgvs,3200,C,E,[10],0.197831516101154,159.250146485322,26314.6945256133,0.192557640597305
lgvs,500,U,E,[49],0.953805289724203,269.699123774992,189087.912221552,0.66178589598594
lgvs,1600,U,E,[49],5.82485127035142,322.211966972203,181066.047845116,1.15057043198718
lgvs,3200,U,E,[49],2.85846204764361,261.341289511505,91701.6681038189,0.933767107502632
lgvs,500,A,-1,[721],0.729873925176565,1132.3855283008,3756014.25614378,0.421861610325656
lgvs,1600,A,-1,[721],0.710544195924981,1127.69339322752,3452619.77334447,0.417031271613877
lgvs,3200,A,-1,[721],0.366903719618167,957.752185585128,2406343.59367803,0.346830462350761
lgvs,500,B,-1,[43],1.22523815444965,468.764707167588,520534.379101291,0.615226097645286
lgvs,1600,B,-1,[43],0.72961701826937,601.089907125758,469688.149169588,0.657609065932692
lgvs,3200,B,-1,[43],0.785305299317215,408.442017698389,358274.886078233,0.560180485250872
lgvs,500,C,-1,[41],0.939088460539654,164.737828458272,56841.9135094942,0.478098272407591
lgvs,1600,C,-1,[41],3.27514457126032,159.116840885525,39562.1297381333,0.776070898594327
lgvs,3200,C,-1,[41],0.696803117981076,176.049401202805,48285.60954822,0.47106052052072
lgvs,500,U,-1,[113],1.77398665281036,204.142847254446,97134.029293301,0.716512300353211
lgvs,1600,U,-1,[113],3.92125988186669,202.161505382397,66965.9597728481,0.840332137952851
lgvs,3200,U,-1,[113],2.48752011332663,331.275862191764,196407.942791122,1.04518910703297
two_whe,500,A,A,[34],3.06076067893468,86.783923826799,15628.7979272243,0.703811117149692
two_whe,1600,A,A,[34],0.536186079465371,28.7896141186599,1079.51040907601,0.402985656960517
two_whe,3200,A,A,[34],1.61757133849841,74.6030538171855,10147.9829653771,0.712106252203506
two_whe,500,B,A,[0],,,,
two_whe,1600,B,A,[0],,,,
two_whe,3200,B,A,[0],,,,
two_whe,500,C,A,[0],,,,
two_whe,1600,C,A,[0],,,,
two_whe,3200,C,A,[0],,,,
two_whe,500,U,A,[2],,,,
two_whe,1600,U,A,[2],,,,
two_whe,3200,U,A,[2],,,,
two_whe,500,A,B,[314],0.510648164225266,15.8360349803116,368.704053748426,0.405561705418154
two_whe,1600,A,B,[314],4695172129641108,15.6744929327865,474.638583713735,0.424770624215357
two_whe,3200,A,B,[314],0.706083342868617,18.0857888045565,438.439799726274,0.462979622961742
two_whe,500,B,B,[32],1.3217068363336,23.2709208342995,836.78467020423,0.824022751372272
two_whe,1600,B,B,[32],2.21589278090345,15.112023032721,483.993170740783,0.855966973385828
two_whe,3200,B,B,[32],4.78128908379597,23.768821386495,733.509698142407,1.03744224935789
two_whe,500,C,B,[31],9.57745214251465E+015,6.31049688540328,64.4929554017659,0.989710377711945
two_whe,1600,C,B,[31],2.34183300454687E+015,7.26245448764984,72.356437203386,0.873577553027307
two_whe,3200,C,B,[31],5496200378182481,11.0450781442564,193.176115016287,1.1993833711457
two_whe,500,U,B,[62],7129557161483485,4.87645611603213,71.6006588943508,0.797569560564236
two_whe,1600,U,B,[62],4.48195187908838E+015,5.81725671862349,48.2433048617576,1.05127440734527
two_whe,3200,U,B,[62],3.57051348675407E+015,2.76526793973763,15.4936825192222,0.728693346340877
two_whe,500,A,C,[43],0.245170747203173,59.6436471735536,4909.0939987351,0.218807130857228
two_whe,1600,A,C,[43],0.277663513509552,93.5536519145326,13867.925916152,0.295422086724126
two_whe,3200,A,C,[43],0.228938842640342,63.4622851012014,5654.38023697195,0.227370403187624
two_whe,500,B,C,[0],,,,
two_whe,1600,B,C,[0],,,,
two_whe,3200,B,C,[0],,,,
two_whe,500,C,C,[0],,,,
two_whe,1600,C,C,[0],,,,
two_whe,3200,C,C,[0],,,,
two_whe,500,U,C,[0],,,,
two_whe,1600,U,C,[0],,,,
two_whe,3200,U,C,[0],,,,
two_whe,500,A,D,[140],0.203928010518447,25.9103164225082,1010.34932462271,0.197630964768521
two_whe,1600,A,D,[140],0.231195436517167,26.8262807863599,1110.5035713951,0.215211471770576
two_whe,3200,A,D,[140],0.192993231568278,23.3936311053488,859.564155463872,0.19116072405325
two_whe,500,B,D,[0],,,,
two_whe,1600,B,D,[0],,,,
two_whe,3200,B,D,[0],,,,
two_whe,500,C,D,[1],,,,
two_whe,1600,C,D,[1],,,,
two_whe,3200,C,D,[1],,,,
two_whe,500,U,D,[0],,,,
two_whe,1600,U,D,[0],,,,
two_whe,3200,U,D,[0],,,,
two_whe,500,A,E,[190],0.668130898472266,27.4713237354563,1182.53161884872,0.494654061118895
two_whe,1600,A,E,[190],0.864964348747297,22.1215756800377,795.841442209297,0.44093960385792
two_whe,3200,A,E,[190],1.36494224978047,22.8121021143664,829.212601001893,0.536930742111211
two_whe,500,B,E,[11],0.480673975462616,35.7028254967881,1364.96027201661,0.635732000303597
two_whe,1600,B,E,[11],11.9496271126661,20.6137344370585,433.235073064273,1.08925786791239
two_whe,3200,B,E,[11],0.46514322236729,17.895507084942,326.353724487938,0.377374844821208
two_whe,500,C,E,[9],,,,
two_whe,1600,C,E,[9],,,,
two_whe,3200,C,E,[9],,,,
two_whe,500,U,E,[49],3.66682843888135,17.7870069832687,502.619853695388,1.20976257113073
two_whe,1600,U,E,[49],1.27966594864101E+016,15.6083787126539,434.45005993363,1.4092313189866
two_whe,3200,U,E,[49],0.921588795085608,15.6578324178206,339.773197737791,0.871553408354376
two_whe,500,A,-1,[721],0.861119898887622,31.4637749065242,2045.68984160465,0.454163798375823
two_whe,1600,A,-1,[721],1.88094979658053E+015,42.5444578850763,3917.24136190197,0.519778871336205
two_whe,3200,A,-1,[721],18627506174161.8,38.9488982478996,3159.98068643665,0.540933616507349
two_whe,500,B,-1,[43],2.30818859412096,26.4322141841666,903.505160407578,0.876366549484992
two_whe,1600,B,-1,[43],0.980038251192984,29.7214755060303,1319.79797746944,0.836945867389714
two_whe,3200,B,-1,[43],0.746762677476166,29.431535253606,1252.99114368814,0.686708820423875
two_whe,500,C,-1,[41],5217408510170372,15.3280372011881,326.496389009459,0.89861723332956
two_whe,1600,C,-1,[41],1.24882320773256E+016,11.5803509668539,206.127900140927,0.801587633590334
two_whe,3200,C,-1,[41],6910520172106036,12.0552967479027,223.552870814178,0.905561681555535
two_whe,500,U,-1,[113],1.41315793999757E+016,11.7977118819276,225.996534894836,1.13020292001472
two_whe,1600,U,-1,[113],9.97689224056542E+015,10.8041173601525,225.75140482171,1.14006267324473
two_whe,3200,U,-1,[113],4551410350480730,9.89937966442919,219.658135160659,1.24061142499874
